{
    "RECORDS": [{
    	"id":1,
    	"description":"3''"
    }, {
    	"id":2,
    	"description":"3''1'"
    }, {
    	"id":3,
    	"description":"3''2'"
    }, {
    	"id":4,
    	"description":"3''3'"
    }, {
    	"id":5,
    	"description":"3''4'"
    }, {
    	"id":6,
    	"description":"3''5'"
    }, {
        "id":7,
        "description":"3''6'"
    }, {
        "id":8,
        "description":"3''7'"
    }, {
        "id":9,
        "description":"3''8'"
    }, {
        "id":10,
        "description":"3''9'"
    }, {
        "id":11,
        "description":"3''10'"
    }, {
        "id":12,
        "description":"3''11'"
    }, {
        "id":13,
        "description":"4''"
    }, {
        "id":14,
        "description":"4''1'"
    }, {
        "id":15,
        "description":"4''2'"
    }, {
        "id":16,
        "description":"4''3'"
    }, {
        "id":17,
        "description":"4''4'"
    }, {
        "id":18,
        "description":"4''5'"
    }, {
        "id":19,
        "description":"4''6'"
    }, {
        "id":20,
        "description":"4''7'"
    }, {
        "id":21,
        "description":"4''8'"
    }, {
        "id":22,
        "description":"4''9'"
    }, {
        "id":23,
        "description":"4''10'"
    }, {
        "id":24,
        "description":"4''11'"
    }, {
        "id":25,
        "description":"5''"
    }, {
        "id":26,
        "description":"5''1'"
    }, {
        "id":27,
        "description":"5''2'"
    }, {
        "id":28,
        "description":"5''3'"
    }, {
        "id":29,
        "description":"5''4'"
    }, {
        "id":30,
        "description":"5''5'"
    }, {
        "id":31,
        "description":"5''6'"
    }, {
        "id":32,
        "description":"5''7'"
    }, {
        "id":33,
        "description":"5''8'"
    }, {
        "id":34,
        "description":"5''9'"
    }, {
        "id":35,
        "description":"5''10'"
    }, {
        "id":36,
        "description":"5''11'"
    }, {
        "id":37,
        "description":"6''"
    }, {
        "id":38,
        "description":"6''1'"
    }, {
        "id":39,
        "description":"6''2'"
    }, {
        "id":40,
        "description":"6''3'"
    }, {
        "id":41,
        "description":"6''4'"
    }, {
        "id":42,
        "description":"6''5'"
    }, {
        "id":43,
        "description":"6''6'"
    }, {
        "id":44,
        "description":"6''5'"
    }, {
        "id":45,
        "description":"6''6'"
    }, {
        "id":46,
        "description":"6''7'"
    }, {
        "id":47,
        "description":"6''8'"
    }, {
        "id":48,
        "description":"6''9'"
    }, {
        "id":49,
        "description":"6''10'"
    }, {
        "id":50,
        "description":"6''11'"
    }, {
        "id":51,
        "description":"7''"
    }, {
        "id":52,
        "description":"7''1'"
    }, {
        "id":53,
        "description":"7''2'"
    }, {
        "id":54,
        "description":"7''3'"
    }, {
        "id":55,
        "description":"7''4'"
    }, {
        "id":56,
        "description":"7''5'"
    }, {
        "id":57,
        "description":"7''6'"
    }, {
        "id":58,
        "description":"7''7'"
    }, {
        "id":59,
        "description":"7''8'"
    }, {
        "id":60,
        "description":"7''9'"
    }, {
        "id":61,
        "description":"7''10'"
    }, {
        "id":62,
        "description":"7''11'"
    }, {
        "id":63,
        "description":"8''"
    }]
}